<?xml version="1.0" encoding="UTF-8" standalone="no"?>
<svg
   xmlns:dc="http://purl.org/dc/elements/1.1/"
   xmlns:cc="http://creativecommons.org/ns#"
   xmlns:rdf="http://www.w3.org/1999/02/22-rdf-syntax-ns#"
   xmlns:svg="http://www.w3.org/2000/svg"
   xmlns="http://www.w3.org/2000/svg"
   xmlns:xlink="http://www.w3.org/1999/xlink"
   enable-background="new"
   id="svg8"
   version="1.1"
   viewBox="0 0 423.33332 423.33335"
   height="1600"
   width="1600">
  <defs
     id="defs2">
    <filter
       id="filter86638"
       style="color-interpolation-filters:sRGB">
      <feBlend
         id="feBlend86640"
         in2="BackgroundImage"
         mode="screen" />
    </filter>
    <symbol
       viewBox="0 0 11 28"
       id="icon-angle-left">
      <title
         id="title8214">angle-left</title>
      <path
         id="path8216"
         d="m 2.5921229,2.2489583 c 0,0.033073 -0.016669,0.070379 -0.041275,0.094985 L 0.92604167,3.96875 2.5508479,5.5935562 c 0.024871,0.024871 0.041275,0.061913 0.041275,0.094985 0,0.033073 -0.016669,0.070379 -0.041275,0.094985 L 2.3442083,5.9901667 c -0.024871,0.024871 -0.061913,0.041275 -0.094985,0.041275 -0.033073,0 -0.070379,-0.016669 -0.094985,-0.041275 L 0.22780625,4.0637354 c -0.0248708,-0.024871 -0.041275,-0.061913 -0.041275,-0.094985 0,-0.033073 0.0166687,-0.070379 0.041275,-0.094985 L 2.1542375,1.9473333 c 0.024871,-0.024871 0.061913,-0.041275 0.094985,-0.041275 0.033073,0 0.070379,0.016669 0.094985,0.041275 l 0.2066396,0.2066396 c 0.024871,0.024871 0.041275,0.057944 0.041276,0.094985 z"
         class="path1"
         style="stroke-width:0.26458332" />
    </symbol>
    <symbol
       viewBox="0 0 9 28"
       id="icon-angle-right">
      <title
         id="title8219">angle-right</title>
      <path
         id="path8221"
         d="m 2.4598312,3.96875 c 0,0.033073 -0.016669,0.070379 -0.041275,0.094985 L 0.492125,5.9901667 c -0.0248708,0.024871 -0.0619125,0.041275 -0.0949854,0.041275 -0.0330729,0 -0.0703792,-0.016669 -0.0949854,-0.041275 L 0.09551458,5.7835271 c -0.02487083,-0.024871 -0.041275,-0.057944 -0.041275,-0.094985 0,-0.033073 0.01666875,-0.070379 0.041275,-0.094985 L 1.7203208,3.96875 0.09551458,2.3439437 c -0.02487083,-0.024871 -0.041275,-0.061913 -0.041275,-0.094985 0,-0.033073 0.01666875,-0.070379 0.041275,-0.094985 L 0.30215417,1.9473333 c 0.0248708,-0.024871 0.0619125,-0.041275 0.0949854,-0.041275 0.0330729,0 0.0703792,0.016669 0.0949854,0.041275 L 2.4185562,3.8737646 c 0.024871,0.024871 0.041275,0.061913 0.041275,0.094985 z"
         class="path1"
         style="stroke-width:0.26458332" />
    </symbol>
  </defs>
  <metadata
     id="metadata5">
    <rdf:RDF>
      <cc:Work
         rdf:about="">
        <dc:format>image/svg+xml</dc:format>
        <dc:type
           rdf:resource="http://purl.org/dc/dcmitype/StillImage" />
        <dc:title></dc:title>
      </cc:Work>
    </rdf:RDF>
  </metadata>
  <g
     style="filter:url(#filter86638);opacity:1"
     transform="translate(0,126.33335)"
     id="layer1">
    <g
       style="fill:#003399"
       transform="translate(1.7015488,-7.9483448e-6)"
       id="g89265">
      <use
         style="fill:#003399"
         id="use89166"
         transform="matrix(2.9633963,0,0,2.9633963,-380.51828,-92.48149)"
         xlink:href="#icon-angle-left"
         x="0"
         y="0"
         width="100%"
         height="100%" />
      <use
         style="fill:#003399"
         id="use89204"
         transform="matrix(2.9633963,0,0,2.9633963,-124.58546,-92.48149)"
         xlink:href="#icon-angle-right"
         x="0"
         y="0"
         width="100%"
         height="100%" />
      <text
         xml:space="preserve"
         style="font-style:normal;font-variant:normal;font-weight:500;font-stretch:normal;font-size:276.64611816px;line-height:1;font-family:Ubuntu;-inkscape-font-specification:'Ubuntu Medium';letter-spacing:0px;word-spacing:0px;fill:#003399;fill-opacity:1;stroke:none;stroke-width:3.24194622"
         x="123.57353"
         y="179.52388"
         id="text89259"
         transform="scale(0.98208202,1.0182449)"><tspan
           id="tspan89257"
           x="123.57353"
           y="179.52388"
           style="stroke-width:3.24194622;fill:#003399">B</tspan></text>
    </g>
  </g>
</svg>
